{
    "exercisePushupRotations": "Liegestütz-Drehungen",
    "exerciseLunges": "Ausfallschritte",
    "exerciseHighKnees": "Knie hoch",
    "exerciseSquats": "Kniebeugen",
    "exerciseAbCrunches": "Bauchpressen",
    "exercisePushups": "Liegestütze",
    "exerciseWallSit": "Wand sitzen",
    "stepsJumpingJacks": "1. Stehe mit den Füßen zusammen und den Armen an den Seiten.\n2. Springe in eine Position, in der die Beine weit gespreizt sind und die Hände sich über Kopf berühren.\n3. Wiederhole",
    "exerciseJumpingJacks": "Hampelmänner",
    "workoutLeg": "Bein-Training",
    "workoutScientific7Minute": "Klassisches 7-Minuten-Training",
    "exerciseSidePlankLeft": "Seitenplanke links",
    "exerciseSidePlankRight": "Seitenplanke rechts",
    "exerciseSideSplitSquatsLeft": "Seitliche Kniebeugen links",
    "exerciseSideSplitSquatsRight": "Seitliche Kniebeugen rechts",
    "exercisePistolSquatLeft": "Einbeinige Kniebeugen links",
    "exercisePistolSquatRight": "Einbeinige Kniebeugen rechts",
    "exerciseSingleLegCalfRaiseLeft": "Wadenheben linkes Bein",
    "exerciseSingleLegCalfRaiseRight": "Wadenheben rechtes Bein",
    "exerciseJumpingRope": "Springseil: einfache Sprünge",
    "exerciseSplitSquatsLeft": "Geteilte Kniebeugen links",
    "exerciseSplitSquatsRight": "Geteilte Kniebeugen rechts",
    "exerciseBulgarianSplitSquatLeft": "Bulgarische geteilte Kniebeugen links",
    "exerciseBulgarianSplitSquatRight": "Bulgarische geteilte Kniebeugen rechts",
    "stepsJumpRopeBasic": "Für diese Übung benötigst Du ein Springseil. Stelle sicher, dass die Seillänge auf Deine Körpergröße abgestimmt ist. Eine Möglichkeit, dies zu überprüfen, ist, beide Griffe mit einer Hand zu greifen und sich mit einem Fuß auf die Mitte des am Boden hängenden Seils zu stellen. Wenn das Seil (ohne die Griffe) bis knapp unter Deine Brust reicht, ist die Länge richtig. Ein kürzeres Seil wäre gefährlich, da Du Dich stoßen könntest und ein längeres Seil würde eine schlechte Form ergeben.\n1. Stelle Deine Füße eng zusammen, beuge Deine Knie ein wenig, halte Deinen Kopf und Körper gerade, lege deine Ellnogen an und öffne Deine Arme.\n2. Drehe nur die Handgelenke mit so viel Kraft, dass sich das Seil dreht.\n3. Springe nur so hoch, dass das Seil unter Deinen Füßen vorbeigeht.\n4. Wiederhole ab Schritt 2.",
    "stepsLunges": "1.Stehe mit geradem Rücken\n2. Mache mit dem linken Bein einen großen Schritt nach vorne\n3. Bringe Dein Becken nach unten, bis Du mit dem rechten Knie fast den Boden berührst\n4. Bringen Dein Becken wieder nach oben\n5. Kehre in den Stand zurück, indem Du einen Schritt zurücktrittst \n6. Wiederhole die Übung und wechsel dabei jedes Mal die Beine",
    "stepsPlank": "Ausgangsposition:\n1. Beginne auf allen Vieren.\nDie Arme sind rechtwinklig angewinkelt, die Schultern befinden sich direkt über den Ellbogen.\nDer Rücken sollte gerade sein, der ganze Körper in einer geraden Linie.\n\nSchritte:\n1. Halte diese Position.",
    "exercisePlank": "Unterarmstütz",
    "stepsSingleLegCalfRaise": "1. Stelle Dich auf den Boden oder auf die Kante einer Stufe. Hebe einen Fuß an und lege den oberen Teil auf die Wade.\n2. Hebe die Fersen an, bis Du auf den Zehenspitzen stehst.\n3. Bleibe drei Sekunden lang in dieser Position und senke dann den Fuß, ohne mit der Ferse den Boden zu berühren.",
    "stepsPushupRotations": "1. Mache einen Standard-Liegestütz:\n1.a Lege Dich auf den Bauch\n1.b Lege Deine Hände in die Nähe Ihrer Ohren\n1.c Hebe Deinen Bauch mit den Armen an, bis die Arme gerade sind und halte den Rücken gerade\n1.d Biege die Arme, bis die Brust fast den Boden berührt, und achte darauf, dass der Rücken gerade ist\n1.e Hebe den Bauch wieder an und kehre zu Schritt 3 zurück\n2. Drehe Deinen Körper zur Seite, so dass der Rücken gerade ist, die untere Hand, die den Körper stützt, vollständig gestreckt ist und nur die untere Hand und der untere Fuß den Boden berühren\n3. Wiederhole und wechsel jedes Mal die Seiten in Schritt 2",
    "stepsKneelingKickback": "1.Lege Dich auf alle Viere.\n2. Drücke einen Fuß nach hinten, bis er vollständig gestreckt ist und konzentriere Dich dabei auf die Gesäßmuskeln.\n3. Bleibe eine Sekunde so und kehre dann in die Ausgangsposition zurück.\n4. Wiederhole indem Du die Füße abwechselst",
    "stepsPistolSquat": "1. Stelle Dich auf ein Bein, wobei das andere Bein gerade und leicht nach vorne zeigt.\n2. Beuge langsam ein Knie, gehen in die Hocke und halte den Rücken und das andere Bein gerade.\n3. Gehe langsam aus der Hocke, strecke das gebeugte Knie und halte das andere Bein gerade.\n4. Wiederhole",
    "exerciseKneelingKickback": "Kniende Rückschläge",
    "stepsBulgarianSplitSquat": "1. Stelle Dich aufrecht vor einen Stuhl und machen einen großen Schritt. Stelle den oberen Teil einer Deiner Füße auf den Stuhl.\n2. Beuge das vordere Knie und balanciere mit den Armen, bis das hintere Knie fast den Boden berührt\n3. Gehe in die Ausgangsposition zurück und wiederhole.",
    "stepsSideSplitSquats": "1. Stellen Dich aufrecht hin und mache einen weiten Seitenschritt, etwas größer als schulterbreit.\n2. Beuge ein Knie, bis Dein Oberschenkel parallel zum Boden ist. Das gebeugte Knie muss in einer Linie mit dem Fuß stehen.\n3. Gehe in die Ausgangsposition zurück und wiederhole.",
    "stepsSidePlank": "1. Lege Dich auf die Seite, der untere Ellbogen ist rechtwinklig, der Arm ragt heraus.\n2. Hebe das Becken vom Boden ab, indem Du die untere Schulter anhebst und den Unterarm auf dem Boden lässt; Dein Kopf, Dein Becken und Deine Füße sollten sich in einer geraden Linie befinden.\n3. Halte diese Position",
    "stepsArmCircles": "1. Stelle dich mit geradem Rücken aufrecht hin.\n2. Halte die Arme gerade und führen sie vor sich nach unten, hinter den Rücken, dann über den Kopf und zurück in die Ausgangsposition.\n3. Lasse die Arme wie in Schritt 2 beschrieben kreisen.",
    "stepsChairDips": "1.Setze Dich auf die Vorderkante eines Stuhls, Rücken gerade, Hände halten die Vorderkante\n2. Halten Dich mit ausgestreckten Armen an der Stuhlkante fest, hebe Dein Gesäß an und gehe leicht nach vorne, so dass es einige Zentimeter vom Stuhl entfernt ist.\n3. Senke Deinen Körper langsam ab, halte dabei den Rücken gerade, bis die Arme einen rechten Winkel bilden\n4. Hebe Deinen Körper wieder in die vorherige Position, Strecke die Arme\n5. Wiederhole die Schritte 3 und 4",
    "stepsAbCrunches": "1. Lege Dich mit dem Gesicht nach oben mit gebeugten Knien auf den Boden.\n2. Beuge die Schultern zum Becken. Die Hände können hinter oder neben dem Nacken oder gekreuzt über der Brust liegen.\n3. Wiederhole",
    "exerciseStepups": "Steigungen",
    "exerciseJumpRopeBasic": "Seilspringen: Grundsprünge",
    "stepsSplitSquats": "1. Stehe mit aufrechtem Rücken\n2. Machen mit dem linken Bein einen großen Schritt nach vorne\n3. Senken Dein Becken ab, bis Du mit dem rechten Knie fast den Boden berühren\n4. Bringe Dein Becken wieder nach oben\n5. Wiederhole ab Schritt 3.",
    "stepsHighKnees": "1. Laufen Sie auf der Stelle, halte die Knie so hoch wie möglich und wechseln Sie die Beine in einem schnellen Tempo",
    "stepsWallSit": "1. Lehne Dich an die Wand, mit Blick nach vorne und mit den Füßen fest auf dem Boden, schulterbreit auseinander und etwa einen Meter von der Wand entfernt\n2. Rutsche mit dem Rücken an der Wand entlang, bis die Beine einen rechten Winkel bilden. Die Knie sollten direkt über den Knöcheln sein\nSchmerzen im Quadrizeps sind normal, höre auf, wenn Du Schmerzen im Knie oder in der Kniescheibe spürst",
    "exerciseChairDips": "Stuhl Stütze",
    "exerciseArmCircles": "Armkreisen vorwärts",
    "stepsSquats": "1. Stelle Dich mit schulterbreit auseinander stehenden Füßen auf\n2. Bewege die Hüften nach hinten und beuge die Knie und Hüften, um den Oberkörper zu senken\n3. Wiederhole",
    "stepsStepups": "1. Stelle dich vor einen Stuhl\n2. Steige auf den Stuhl.\n3. Steige vom Stuhl ab.\n4. Wiederhole",
    "stepsPushups": "Ausgangsposition:\nStarte mit der Ausgangsposition für Liegestütze, wobei Hände und Zehen den Boden berühren und Arme und Beine gerade sind. Um diese Position zu erreichen, kannst Du Dich auf den Bauch legen, die Hände nach unten neben den Kopf legen und die Arme nach oben heben, bis sie gerade sind.\n\nDie Schritte:\n1. Beuge den Ellbogen, bis die Brust fast den Boden berührt. Achte darauf, dass der Rücken immer gerade ist.\n2. Hebe Dich mit den Armen wieder in die Ausgangsposition.\n3. Wiederhole.",
    "stepsMountainClimbers": "Ausgangsposition:\nBeginne mit der aufrechten Liegestützposition oder mit der hohen Planke.\nDie Hände sollten sich direkt unter Deinen Schultern befinden.\nHalte den Kopf in einer Linie mit dem Rücken und schaue zum Boden.\nDie Füße sollten etwa hüftbreit auseinander stehen.\n\nSchritte:\n1. Bewege ein Knie zur Körpermitte hin zu den Ellenbogen, das andere Bein bleibt gestreckt.\n2. Strecke in einer schnellen Sprungbewegung das gebeugte Bein aus und ziehe das andere Knie zum Körper.\n3. Wiederhole Schritt 2 im Wechsel mit dem anderen Bein.\n\nHinweise:\nWährend der gesamten Übung sollte Dein Rücken möglichst gerade bleiben - vermeide einen Buckel oder einen durchhängenden Rücken.",
    "exerciseMountainClimbers": "Bergsteiger",
    "exerciseReverseLunges": "Umgekehrte Ausfallschritte",
    "exerciseHighPlank": "Hohe Planke",
    "exerciseLegRaises": "Beine heben",
    "exerciseSumoSquat": "Sumo Kniebeugen",
    "exercisePullUp": "Klimmzüge",
    "stepsLegRaises": "Ausgangsposition:\nLege Dich auf den Rücken, Füße zusammen, Arme an den Seiten.\n\nSchritte:\n1. Beuge die Knie und strecke sie dann gerade nach oben.\n2. Halte die Beine gerade und senke sie gemeinsam ab, ohne den Boden zu berühren. Je tiefer, desto intensiver ist die Übung.\n3. Hebe beide Beine zusammen an, so dass sie wieder gerade nach oben zeigen.\n4. Wiederholen ab Schritt 2.",
    "stepsSumoSquat": "Ausgangsposition:\nBreitbeiniger Stand mit nach außen gedrehten Zehen.\n\nSchritte:\n1. Sinke langsam nach unten, indem die Knie nach außen gebeugt werden. Arme nach vorne strecken. Halte Kopf, Brust und Hüfte in einer geraden Linie. Spanne die Gesäßmuskeln an.\n2. Bringe Dich wieder in die Ausgangsposition.\n3. Wiederhole diese Übung in einer pulsierenden Bewegung.",
    "exerciseKettlebellDeadlift": "Kettlebell Kreuzheben",
    "exerciseBWShoulderRotation": "Rückwärtsdrehung der Schulter",
    "exerciseFWShoulderRotation": "Vorwärtsdrehung der Schulter",
    "exerciseBackRightNeckStretch": "Rücken und rechter Nacken dehnen",
    "exerciseBackLeftNeckStretch": "Rücken und linker Nacken dehnen",
    "exerciseHeadTurn": "Kopf drehen",
    "exerciseSquatThrusts": "Kniebeugen",
    "workoutNeckShoulderStretch": "Nacken- und Schulterdehnungen",
    "exerciseFrontNeckStretch": "Nackenstütze vorne",
    "exerciseFloorDips": "Bodensenken",
    "exerciseChinTuckFlexionRotation": "Kinnbacken mit Beugung und Drehung",
    "exerciseRightNeckStretch": "Rechte Nackendehnung",
    "exerciseLeftNeckStretch": "Linke Nackendehnung",
    "exerciseNeckFlexion": "Nackendehnung",
    "exerciseBWArmCircles": "Armkreisen rückwärts",
    "stepsBWArmCircles": "1. Stelle Dich aufrecht und mit geradem Rücken hin.\n2. Halte die Arme gerade und führe sie vor dich her, hebe sie über deinen Kopf und führe die Bewegung hinter deinem Rücken bis zur Ausgangsposition fort.\n3. Lasse die Arme wie in Schritt 2 beschrieben kreisen.",
    "stepsSquatThrusts": "Ausgangsposition:\nBeginne in der hohen Plank-Position: Rücken, Arme und Beine sind gestreckt, die Hände sind schulterbreit auseinander.\n\nSchritte:\n1. Springe mit den Füßen zwischen den Armen nach vorne und halte den Rücken flach.\n2. Lasse die Hände auf dem Boden und springe mit den Beinen zurück in die hohe Plank-Position.\n3. Wiederhole die Übung.",
    "exercisePikePushups": "Hecht-Liegestütze",
    "exerciseShoulderShrug": "Schulterzucken",
    "stepsShoulderRotation": "Ausgangsposition:\nSitze oder stehe mit geradem Rücken.\n\nSchritte:\n1. Lege Deine Hände auf Deine Schultern.\n2. Drehe wiederholt beide Schultergelenke in einer kreisförmigen Bewegung mit mäßigem Tempo.",
    "exerciseChildsPose": "Kinderpose",
    "stepsFloorDips": "Ausgangsposition:\nSetzen Sie sich mit den Armen hinter den Rücken und stützen Sie ihn ab.\nDie Finger sollten nach vorne zeigen.\nDie Knie sind gebeugt, die Füße stehen zusammen.\n\nDie Schritte:\n1. Heben Sie die Hüfte vom Boden ab und strecken Sie die Arme aus.\n2. Beugen Sie die Ellbogen und bringen Sie die Hüfte nach unten.\n3. Strecken Sie die Arme durch und kehren Sie in die vorherige Position zurück.\n4. Wiederholen Sie die Schritte 2 und 3.\n\nAnmerkungen:\nDer Schwierigkeitsgrad der Übung hängt davon ab, wie hoch Sie Ihre Hüften bringen.",
    "stepsChinTuck": "Ausgangsposition:\nSitzen oder stehen Sie mit geradem Rücken.\n\nSchritte:\n1. Ziehen Sie mit den Fingern am Kinn langsam das Kinn nach innen und bewegen Sie den Kopf zurück, um ihn mit der Wirbelsäule in Einklang zu bringen.\n2. Halten Sie die Position für 5 Sekunden.\n3. Gehen Sie zurück in die normale Kopfposition und wiederholen Sie den Vorgang.",
    "stepsHeadTurn": "Ausgangsposition:\nSitzen oder stehen Sie mit geradem Rücken und Schultern nach unten.\n\nSchritte:\n1. Setzen oder stellen Sie sich gerade hin, die Schultern sind gesenkt.\n2. Drehen Sie Ihren Kopf so weit wie möglich zur Seite. Halten Sie an, wenn Sie auf ein Hindernis stoßen, und bleiben Sie 5 Sekunden lang stehen.\n3. Kehren Sie in die Mittelposition zurück und wiederholen Sie den Vorgang, wobei Sie die Seite wechseln.",
    "stepsShoulderShrug": "Ausgangsposition:\nSitzen oder stehen Sie mit geradem Rücken.\n\nSchritte:\n1. Heben Sie die Schultern so weit wie möglich gerade nach oben und halten Sie sie 5 Sekunden lang.\n2. Lassen Sie die Schultern wieder in eine entspannte Position sinken.\n3. Wiederholen Sie die Übung.",
    "stepsFrontNeckStretch": "Ausgangsposition:\nSitzen oder stehen Sie mit geradem Rücken.\n\nSchritte:\n1. Öffnen Sie den Mund weit.\n2. Neigen Sie den Kopf bei geöffnetem Mund langsam nach hinten. Wenn Sie das Gefühl haben, dass Sie Unterstützung brauchen, verschränken Sie Ihre Hände hinter dem Kopf.\n3. Schließen und öffnen Sie den Mund ganz langsam.\n4. Am Ende kehren Sie langsam in die Ausgangsposition zurück und schließen den Mund.",
    "stepsHighPlank": "Ausgangsposition:\nNehmen Sie die hohe Planke ein: Ihre Hände und Zehen sollten den Boden berühren, Ihr Rücken, Ihre Arme und Beine sollten gerade sein.\nUm in diese Position zu gelangen, können Sie sich auf den Bauch legen, die Hände mit dem Gesicht nach unten neben den Kopf legen und die Arme anheben, bis sie gerade sind.\n\nDie Schritte:\n1. Behalten Sie die Ausgangsposition während der gesamten Dauer der Übung bei.",
    "stepsPullUp": "Ausgangsposition:\nHängen Sie sich zunächst an die Klimmzugstange, die Handflächen zeigen nach außen und die Füße heben sich vom Boden ab.\nIhre Hände sollten etwas weiter als schulterbreit auseinander sein. Nur ein wenig, so dass die Ellbogen noch vor dem Körper sind und nicht direkt an der Seite.\nIhr Körper sollte gerade sein und leicht nach vorne zeigen. Die Arme sollten gestreckt sein.\n\nDie Schritte:\n1. Ziehen Sie Ihren Körper mit aller Kraft gleichmäßig nach oben, so dass sich Ihre Brust der Klimmzugstange nähert und Ihr Kinn knapp über ihr liegt. Heben Sie sich NICHT mit Schwung hoch, z. B. durch einen Tritt.\n2. Senken Sie Ihren Körper vorsichtig in die Ausgangsposition zurück.\n3. Wiederholen Sie den Vorgang.\n\nTipps:\n- Um Klimmzüge richtig ausführen zu können, müssen Sie zunächst Kraft in mehreren Schlüsselbereichen aufbauen, darunter Schultern, Arme und Bauchmuskeln. Beginnen Sie erst dann mit Klimmzügen, wenn Sie mit anderen Übungen genügend Kraft aufgebaut haben.",
    "stepsChinTuckFlexionRotation": "Ausgangsposition:\nSitzen oder stehen Sie mit geradem Rücken.\n\nSchritte:\n1. Ziehen Sie das Kinn ein und legen Sie den Kopf zurück.\n2. Neigen Sie den Kopf nach vorne, bis Sie eine Dehnung im Nacken spüren.\n3. Drehen Sie den Kopf beim Ausatmen zur Seite. Führen Sie Ihren Kopf mit den Fingern an den Schläfen und üben Sie ein wenig Überdruck aus.\n4. Halten Sie die Position für 5 Sekunden.\n5. Drehen Sie den Kopf zurück und halten Sie ihn dabei unten.\n6. Wiederholen Sie den Vorgang ab Schritt 3, wobei Sie die Seite wechseln.",
    "stepsKettlebellDeadlift": "Ausgangsposition:\nStellen Sie sich hüftbreit auseinander, die Kettlebell befindet sich in der Mitte zwischen Ihren Knöcheln. Der Rücken sollte gerade sein, der Kopf nach vorne zeigen.\n\nSchritte:\n1. Beugen Sie sich in der Hüfte und gehen Sie leicht in die Knie, um die Hände auf die Kettlebell-Griffe zu legen. Der Rücken sollte gerade sein, während Sie die Bewegung ausführen.\n2. Greifen Sie die Kettlebell-Griffe und drücken Sie mit den Händen in entgegengesetzte Richtungen, als ob Sie die Griffe auseinanderziehen wollten.\n3. Während Sie Ihre Bauch- und Gesäßmuskeln anspannen, richten Sie sich auf.\n4. Beugen Sie sich wieder in die Hüfte, um die Kettlebell wieder nach unten zu bringen, ähnlich wie in Schritt 1.\n5. Wiederholen Sie den Vorgang ab Schritt 3.\n\nTipps:\n* Achten Sie darauf, dass Sie die Bewegungen korrekt ausführen, da dies sonst zu Verletzungen führen kann. Gehen Sie z.B. nicht in die Hocke statt in die Hüfte, machen Sie den Rücken nicht rund, wenn Sie nach der Kettlebell greifen, und lehnen Sie sich beim Aufstehen nicht zurück.",
    "stepsChildsPose": "Ausgangsposition:\nBeginnen Sie auf allen Vieren, wobei Knie, Zehen und Hände den Boden berühren. Ihre beiden großen Zehen sollten sich berühren.\n\nSchritte:\n1. Bewegen Sie Ihre Knie so, dass sie etwa hüftbreit auseinander sind.\n2. Bewegen Sie beim Ausatmen Ihr Becken nach hinten, so dass Sie auf Ihren Fersen sitzen. Ihre Hände sollten noch den Boden berühren.\n3. Entspannen Sie Ihren Oberkörper, indem Sie die Stirn auf den Boden senken und die Hände ganz natürlich nach vorne bewegen.\n4. Bleiben Sie in dieser Haltung.\n\nTipps:\n* Um die Haltung zu verlassen, führen Sie die Arme wieder unter die Schultern und bringen Sie den Oberkörper in eine sitzende Position.",
    "stepsLateralNeckStretch": "Ausgangsposition:\nSitzen oder stehen Sie mit geradem Rücken.\n\nSchritte:\n1. Neigen Sie den Kopf zur Seite und halten Sie ihn 8 Sekunden lang, um die Seite des Nackens zu dehnen.\n2. Ziehen Sie mit der näheren Hand am Kopf, um ihn weiter zu dehnen. Halten Sie 8 Sekunden lang.\n3. Drehen Sie Ihr Kinn zu Ihrer Schulter. Halten Sie 8 Sekunden lang.\n4. Lassen Sie los und kehren Sie in die Ausgangsposition zurück.",
    "stepsReverseLunges": "Ausgangsposition:\nGerade stehen, Füße hüftbreit auseinander.\n\nSchritte:\n1. Treten Sie mit einem Bein nach hinten, so dass Sie es bequem bis zu einem Winkel von 90 Grad beugen können.\n2. Beugen Sie langsam beide Knie, um einen 90-Grad-Winkel zu bilden.\n3. Kehren Sie in die Ausgangsposition zurück.\n4. Wiederholen, dabei die Beine abwechseln.",
    "stepsBackLateralNeckStretch": "Ausgangsposition:\nSetzen Sie sich aufrecht auf einen Stuhl oder ein festes Kissen.\n\nSchritte:\n1. Atmen Sie aus und neigen Sie den Kopf nach vorne, das Kinn zur Brust, mit den Händen hinter dem Kopf.\n2. Halten Sie den Kopf nach vorne und drehen Sie ihn mit Hilfe der Bauchmuskeln so weit wie möglich zur Seite.\n3. Ziehen Sie den Kopf mit den Händen ganz leicht nach unten, um die Dehnung zu kontrollieren.\n4. Ziehen Sie die Schultern mit Hilfe der Rückenmuskulatur nach hinten und unten. Halten Sie die Position für 5 Sekunden.\n5. Drehen Sie sich zurück in die Mittelposition.\n6. Führen Sie die Hände an die Stirn und drücken Sie den Kopf wieder aufrecht in die normale Position.",
    "stepsPikePushups": "Starre Position:\nDer nach unten gerichtete Hund: Ihr Körper sollte eine V-Form bilden, mit geradem Rücken, Armen und Beinen. Ihre Hüften sollten in der Luft sein.\nSie können diese Position erreichen, indem Sie die Hände aus einem hohen Plankenstand nach hinten führen.\n\nSchritte:\n1. Beugen Sie die Ellbogen zur Seite, halten Sie Rücken und Beine gerade und bringen Sie den Kopf näher zum Boden.\n2. Strecken Sie die Arme aus, drücken Sie die Hüfte wieder nach oben und halten Sie Rücken und Beine gerade.\n3. Wiederholen Sie die Übung.",
    "stepsNeckFlexion": "Ausgangsposition:\nSetzen Sie sich aufrecht auf einen Stuhl oder ein festes Kissen.\n\nSchritte:\n1. Atmen Sie aus und neigen Sie den Kopf nach vorne, das Kinn zur Brust, und legen Sie die Hände hinter den Kopf.\n2. Ziehen Sie den Kopf mit den Händen ganz leicht nach unten. Halten Sie die Position für 5 Sekunden.\n3. Ziehen Sie die Schultern mit Hilfe der Rückenmuskulatur nach hinten und unten. Dies sollte die Dehnung des Nackens verstärken. Halten Sie die Position 5 Sekunden lang.\n4. Schieben Sie nun den Kopf sanft wieder nach oben und ziehen Sie ihn gleichzeitig mit den Händen nach unten. Halten Sie beide Kräfte im Gleichgewicht, damit sich Ihr Kopf nicht bewegt. Halten Sie die Position mindestens 5 Sekunden lang.\n5. Führen Sie Ihre Finger zur Stirn und bewegen Sie damit Ihren Kopf sanft in die Ausgangsposition zurück.",
    "exercisePushupBurpees": "Liegestütz-Burpees",
    "stepsPushupBurpees": "Ausgangsposition:\nGerade stehen, Füße hüftbreit auseinander.\n\nSchritte:\n1. Gehen Sie in die Hocke und stützen Sie sich mit den Händen zwischen den Knien und vor den Füßen mit geradem Rücken auf dem Boden ab.\n2. Lassen Sie die Hände auf dem Boden und springen Sie mit den Beinen nach hinten in eine hohe Plank-Position.\n3. Machen Sie einen Liegestütz.\n4. Springen Sie mit den Füßen nach vorn, um in die Hocke zurückzukehren.\n5. Wiederholen.",
    "exercise4countBurpees": "Burpees mit 4 Zählzeiten",
    "exerciseNoPushupBurpees": "Keine Liegestütz-Burpees",
    "stepsNoPushupBurpees": "Ausgangsposition:\nGerade stehen, Füße hüftbreit auseinander.\n\nSchritte:\n1. Gehen Sie in die Hocke und stützen Sie sich mit den Händen zwischen den Knien und vor den Füßen mit geradem Rücken auf dem Boden ab.\n2. Lassen Sie die Hände auf dem Boden und springen Sie mit den Beinen nach hinten in eine hohe Plank-Position.\n3. Springen Sie mit den Füßen nach vorne, um wieder in die Hocke zu gehen.\n4. Springen Sie hoch.\n5. Wiederholen Sie dies.",
    "steps4countBurpees": "Ausgangsposition:\nGerade stehen, Füße hüftbreit auseinander.\n\nSchritte:\n1. Gehen Sie in die Hocke und stützen Sie sich mit den Händen zwischen den Knien und vor den Füßen mit geradem Rücken auf dem Boden ab.\n2. Lassen Sie die Hände auf dem Boden und springen Sie mit den Beinen nach hinten in eine hohe Plank-Position.\n3. Springen Sie mit den Füßen nach vorne, um wieder in die Hocke zu gehen.\n4. Wiederholen Sie die Übung.",
    "exerciseChinTuck": "Schluckübungen"
}
