{
    "exerciseSquats": "Kalkansidoj",
    "exercisePushups": "Puŝlevoj",
    "workoutLeg": "Krura ekzercado",
    "btnDone": "Farite",
    "btnDelete": "Forigi",
    "btnEdit": "Redakti",
    "btnAddExercise": "Aldoni ekzercojn",
    "btnNextExercise": "Antaŭa ekzerco",
    "btnPreviousExercise": "Malantaŭa ekzerco",
    "btnStartWorkout": "Komenci ekzercadon",
    "txtAboutFeeel": "Pri Feeel",
    "txtAddExerciseFirst": "Aldoni ekzercon unue",
    "txtNotificationTime": "Sciiga tempo",
    "txtSettings": "Agordoj",
    "txtExerciseName": "Ekzerca nomo",
    "txtSubmitNewExercise": "Kontribui",
    "txtCategoryLegs": "Kruroj",
    "txtCategoryFullBody": "Tuta korpo",
    "txtCustom": "Kutimo",
    "txtExerciseDuration": "Ekzerco daŭro",
    "txtDuration": "Daŭro",
    "txtWorkoutExercisesEmpty": "Bonvolu aldoni almenaŭ 1 ekzerco",
    "txtWorkoutTitleEmpty": "Bonvolu specifi workout titolo",
    "txtSubmitExerciseMessageContents": "Saluton,\n\nMi estas sendanta propono de ekzercado. Mi deklaras ke # amba? la kuna bildoj kaj la priskribo estas tute mia propra laboro. Per la sendo de ĉi tiu mesaĝo, mi nerevokeble konsentas havi la # submeti? i nomo kaj priskribo liberigita sub CC BY-SA 4.0 license kaj AGPLv3 kun app vendejo escepto permesilo. Mi ankaŭ donas permeson por pretigi la alkroĉita bildo(j) en malalta-poli variantoj. Post kiam ili estas traktataj, mi volas taksi ĉu mi estas volanta permesilo ilin sub la CC BY-SA 4.0 license.\n\nEkzerco nomo: %1s\nEkzerco paŝoj:\n%2s",
    "txtSubmitExerciseMessageTitle": "Ekzerco propono: %s",
    "txtEmailCouldNotBeSent": "Retpoŝto ne esti sendita",
    "txtHowToPerformExercise": "Kiel elfari la ekzerco (laŭvola)",
    "txtContributeExerciseExplainer": "Feeel dependas de volontuloj kiel vi # submeti? i ekzercoj kaj ekzercado fotoj. Fotoj unua esti private pretigita en triangulated versioj, tiam sendita al vi por aprobo, kaj nur tiam liberigita en la app. Ĉiuj submetitaj fotoj kaj teksto devas esti nur via laboro. Dankonas por kontribui!",
    "txtYoureGlowing": "Vi estas arda!",
    "txtWorkoutToMakeYouFeelBest": "La dezajno workout kiu faras vin sentas la plej bona",
    "txtBeYourOwnCoach": "Esti via propra trejnisto!",
    "txtWorkoutTitle": "Workout titolo",
    "txtImageMissing": "Bildo mankas",
    "txtTapForControls": "Frapeto por kontroloj",
    "txtSecondsLeft5plus": "%d sekundoj maldekstre",
    "txtLetsGoFirstUp": "Ni iru! Unue supre: %s",
    "txtNextUp": "Venonta supre:",
    "txtYouDidIt": "Vi faris ĝin!",
    "txtNotificationTitle": "Tempo por meti sur workout clothes!",
    "txtNotificationDesc": "Ĝi prenas nur kelkajn minutojn por senti freŝan kaj persvadi",
    "txtRemindMe": "Ĉiutaga rememorigo",
    "txtNeedCameraPermission": "Malferma-fonto hejmo workout app kiu respektas vian privatecan",
    "txtDiscardChanges": "Forĵeti ŝanĝojn?",
    "txtTheme": "Temo",
    "txtThemeSystem": "Sistemo default",
    "txtThemeLight": "Lumo",
    "txtThemeDark": "Malluma",
    "txtBatteryOptimization": "Sur kelkaj aparatoj, vi povas devi malfunkciigi baterio optimumigo por Feeel por ĉi labori fidinde.",
    "txtParticipate": "Partopreni",
    "txtBreak": "Rompu!",
    "txtBreakDuration": "Paŭza daŭro",
    "txtNegativeNumber": "Ne pozitiva",
    "txtNotificationInfoTitle": "Ĉiutaga sciigo",
    "txtCustomDuration": "Propra daŭro (s.)",
    "txtDonate": "Doni",
    "btnOK": "bone",
    "btnSubmitViaEmail": "Sendu retpoŝte",
    "btnResumeWorkout": "Resumo workout",
    "txtCouldNotOpenURL": "Ne eblis malfermi URL.",
    "txtSourceCode": "Fontkodo",
    "txtFeeelDescription": "Malferma-fonto hejmo workout app kiu respektas vian privatecan",
    "txtNotificationInfoDesc": "Ĉiutaga memorigilo por labori el",
    "txtNotANumber": "Ne-numera",
    "btnDuplicate": "Duobligi",
    "btnCancel": "Nuligi",
    "btnDiscard": "Forĵeti",
    "btnMoreInfo": "Pli info",
    "btnCreateCustomWorkout": "Krei kutimo workout",
    "btnAddCustomExerice": "Proponi propra ekzercado",
    "btnAddPhotoFromGallery": "Aldoni foto de galerio",
    "btnTakeAPhoto": "Preni foton",
    "btnAddALinkToPhotos": "Aldoni ligon al via foto(j)",
    "btnDisableTTS": "Uzi sonoj anstataŭe de parolado",
    "btnAdjustTiming": "Alĝustigu kalendaro",
    "btnDoneEditingTiming": "Farita redaktado kalendaro",
    "btnEnableTTS": "Uzi voĉajn komandojn",
    "txtOther": "Aliaj",
    "txtStretchingAndYoga": "Streĉanta & jogo",
    "txtStrength": "Forto",
    "txtCardio": "Cardioo",
    "txtDragToReorder": "Trenu ĉi tiun tenilon por reordigi ekzercojn.",
    "txtDurationLong": "%1d min %2d  sek.",
    "txtNumberInputNonnumeric": "Devas esti nombra",
    "txtNumberInputEmpty": "Ne povas esti malplena",
    "txtLanguage": "Lingvo",
    "txtNoExercises": "Tie estas neniu ekzercoj en#? i tiu workout. :(",
    "btnDeleteThisWorkout": "Forigu ĉi tiun trejnadon",
    "btnBackToWorkoutList": "Reen al workout listo"
}
